{
    "count": 82,
    "next": "https://swapi.dev/api/people/?page=6",
    "previous": "https://swapi.dev/api/people/?page=4",
    "results": [
        {
            "name": "Quarsh Panaka",
            "height": "183",
            "mass": "unknown",
            "hair_color": "black",
            "skin_color": "dark",
            "eye_color": "brown",
            "birth_year": "62BBY",
            "gender": "male",
            "homeworld": "https://swapi.dev/api/planets/8/",
            "films": [
                "https://swapi.dev/api/films/4/"
            ],
            "species": [],
            "vehicles": [],
            "starships": [],
            "created": "2014-12-19T17:55:43.348000Z",
            "edited": "2014-12-20T21:17:50.399000Z",
            "url": "https://swapi.dev/api/people/42/"
        },
        {
            "name": "Shmi Skywalker",
            "height": "163",
            "mass": "unknown",
            "hair_color": "black",
            "skin_color": "fair",
            "eye_color": "brown",
            "birth_year": "72BBY",
            "gender": "female",
            "homeworld": "https://swapi.dev/api/planets/1/",
            "films": [
                "https://swapi.dev/api/films/4/",
                "https://swapi.dev/api/films/5/"
            ],
            "species": [],
            "vehicles": [],
            "starships": [],
            "created": "2014-12-19T17:57:41.191000Z",
            "edited": "2014-12-20T21:17:50.401000Z",
            "url": "https://swapi.dev/api/people/43/"
        },
        {
            "name": "Darth Maul",
            "height": "175",
            "mass": "80",
            "hair_color": "none",
            "skin_color": "red",
            "eye_color": "yellow",
            "birth_year": "54BBY",
            "gender": "male",
            "homeworld": "https://swapi.dev/api/planets/36/",
            "films": [
                "https://swapi.dev/api/films/4/"
            ],
            "species": [
                "https://swapi.dev/api/species/22/"
            ],
            "vehicles": [
                "https://swapi.dev/api/vehicles/42/"
            ],
            "starships": [
                "https://swapi.dev/api/starships/41/"
            ],
            "created": "2014-12-19T18:00:41.929000Z",
            "edited": "2014-12-20T21:17:50.403000Z",
            "url": "https://swapi.dev/api/people/44/"
        },
        {
            "name": "Bib Fortuna",
            "height": "180",
            "mass": "unknown",
            "hair_color": "none",
            "skin_color": "pale",
            "eye_color": "pink",
            "birth_year": "unknown",
            "gender": "male",
            "homeworld": "https://swapi.dev/api/planets/37/",
            "films": [
                "https://swapi.dev/api/films/3/"
            ],
            "species": [
                "https://swapi.dev/api/species/15/"
            ],
            "vehicles": [],
            "starships": [],
            "created": "2014-12-20T09:47:02.512000Z",
            "edited": "2014-12-20T21:17:50.407000Z",
            "url": "https://swapi.dev/api/people/45/"
        },
        {
            "name": "Ayla Secura",
            "height": "178",
            "mass": "55",
            "hair_color": "none",
            "skin_color": "blue",
            "eye_color": "hazel",
            "birth_year": "48BBY",
            "gender": "female",
            "homeworld": "https://swapi.dev/api/planets/37/",
            "films": [
                "https://swapi.dev/api/films/4/",
                "https://swapi.dev/api/films/5/",
                "https://swapi.dev/api/films/6/"
            ],
            "species": [
                "https://swapi.dev/api/species/15/"
            ],
            "vehicles": [],
            "starships": [],
            "created": "2014-12-20T09:48:01.172000Z",
            "edited": "2014-12-20T21:17:50.409000Z",
            "url": "https://swapi.dev/api/people/46/"
        },
        {
            "name": "Ratts Tyerel",
            "height": "79",
            "mass": "15",
            "hair_color": "none",
            "skin_color": "grey, blue",
            "eye_color": "unknown",
            "birth_year": "unknown",
            "gender": "male",
            "homeworld": "https://swapi.dev/api/planets/38/",
            "films": [
                "https://swapi.dev/api/films/4/"
            ],
            "species": [
                "https://swapi.dev/api/species/16/"
            ],
            "vehicles": [],
            "starships": [],
            "created": "2014-12-20T09:53:15.086000Z",
            "edited": "2014-12-20T21:17:50.410000Z",
            "url": "https://swapi.dev/api/people/47/"
        },
        {
            "name": "Dud Bolt",
            "height": "94",
            "mass": "45",
            "hair_color": "none",
            "skin_color": "blue, grey",
            "eye_color": "yellow",
            "birth_year": "unknown",
            "gender": "male",
            "homeworld": "https://swapi.dev/api/planets/39/",
            "films": [
                "https://swapi.dev/api/films/4/"
            ],
            "species": [
                "https://swapi.dev/api/species/17/"
            ],
            "vehicles": [],
            "starships": [],
            "created": "2014-12-20T09:57:31.858000Z",
            "edited": "2014-12-20T21:17:50.414000Z",
            "url": "https://swapi.dev/api/people/48/"
        },
        {
            "name": "Gasgano",
            "height": "122",
            "mass": "unknown",
            "hair_color": "none",
            "skin_color": "white, blue",
            "eye_color": "black",
            "birth_year": "unknown",
            "gender": "male",
            "homeworld": "https://swapi.dev/api/planets/40/",
            "films": [
                "https://swapi.dev/api/films/4/"
            ],
            "species": [
                "https://swapi.dev/api/species/18/"
            ],
            "vehicles": [],
            "starships": [],
            "created": "2014-12-20T10:02:12.223000Z",
            "edited": "2014-12-20T21:17:50.416000Z",
            "url": "https://swapi.dev/api/people/49/"
        },
        {
            "name": "Ben Quadinaros",
            "height": "163",
            "mass": "65",
            "hair_color": "none",
            "skin_color": "grey, green, yellow",
            "eye_color": "orange",
            "birth_year": "unknown",
            "gender": "male",
            "homeworld": "https://swapi.dev/api/planets/41/",
            "films": [
                "https://swapi.dev/api/films/4/"
            ],
            "species": [
                "https://swapi.dev/api/species/19/"
            ],
            "vehicles": [],
            "starships": [],
            "created": "2014-12-20T10:08:33.777000Z",
            "edited": "2014-12-20T21:17:50.417000Z",
            "url": "https://swapi.dev/api/people/50/"
        },
        {
            "name": "Mace Windu",
            "height": "188",
            "mass": "84",
            "hair_color": "none",
            "skin_color": "dark",
            "eye_color": "brown",
            "birth_year": "72BBY",
            "gender": "male",
            "homeworld": "https://swapi.dev/api/planets/42/",
            "films": [
                "https://swapi.dev/api/films/4/",
                "https://swapi.dev/api/films/5/",
                "https://swapi.dev/api/films/6/"
            ],
            "species": [],
            "vehicles": [],
            "starships": [],
            "created": "2014-12-20T10:12:30.846000Z",
            "edited": "2014-12-20T21:17:50.420000Z",
            "url": "https://swapi.dev/api/people/51/"
        }
    ]
}