{
    "count": 82,
    "next": "https://swapi.dev/api/people/?page=9",
    "previous": "https://swapi.dev/api/people/?page=7",
    "results": [
        {
            "name": "Lama Su",
            "height": "229",
            "mass": "88",
            "hair_color": "none",
            "skin_color": "grey",
            "eye_color": "black",
            "birth_year": "unknown",
            "gender": "male",
            "homeworld": "https://swapi.dev/api/planets/10/",
            "films": [
                "https://swapi.dev/api/films/5/"
            ],
            "species": [
                "https://swapi.dev/api/species/32/"
            ],
            "vehicles": [],
            "starships": [],
            "created": "2014-12-20T17:30:50.416000Z",
            "edited": "2014-12-20T21:17:50.473000Z",
            "url": "https://swapi.dev/api/people/72/"
        },
        {
            "name": "Taun We",
            "height": "213",
            "mass": "unknown",
            "hair_color": "none",
            "skin_color": "grey",
            "eye_color": "black",
            "birth_year": "unknown",
            "gender": "female",
            "homeworld": "https://swapi.dev/api/planets/10/",
            "films": [
                "https://swapi.dev/api/films/5/"
            ],
            "species": [
                "https://swapi.dev/api/species/32/"
            ],
            "vehicles": [],
            "starships": [],
            "created": "2014-12-20T17:31:21.195000Z",
            "edited": "2014-12-20T21:17:50.474000Z",
            "url": "https://swapi.dev/api/people/73/"
        },
        {
            "name": "Jocasta Nu",
            "height": "167",
            "mass": "unknown",
            "hair_color": "white",
            "skin_color": "fair",
            "eye_color": "blue",
            "birth_year": "unknown",
            "gender": "female",
            "homeworld": "https://swapi.dev/api/planets/9/",
            "films": [
                "https://swapi.dev/api/films/5/"
            ],
            "species": [
                "https://swapi.dev/api/species/1/"
            ],
            "vehicles": [],
            "starships": [],
            "created": "2014-12-20T17:32:51.996000Z",
            "edited": "2014-12-20T21:17:50.476000Z",
            "url": "https://swapi.dev/api/people/74/"
        },
        {
            "name": "R4-P17",
            "height": "96",
            "mass": "unknown",
            "hair_color": "none",
            "skin_color": "silver, red",
            "eye_color": "red, blue",
            "birth_year": "unknown",
            "gender": "female",
            "homeworld": "https://swapi.dev/api/planets/28/",
            "films": [
                "https://swapi.dev/api/films/5/",
                "https://swapi.dev/api/films/6/"
            ],
            "species": [],
            "vehicles": [],
            "starships": [],
            "created": "2014-12-20T17:43:36.409000Z",
            "edited": "2014-12-20T21:17:50.478000Z",
            "url": "https://swapi.dev/api/people/75/"
        },
        {
            "name": "Wat Tambor",
            "height": "193",
            "mass": "48",
            "hair_color": "none",
            "skin_color": "green, grey",
            "eye_color": "unknown",
            "birth_year": "unknown",
            "gender": "male",
            "homeworld": "https://swapi.dev/api/planets/56/",
            "films": [
                "https://swapi.dev/api/films/5/"
            ],
            "species": [
                "https://swapi.dev/api/species/33/"
            ],
            "vehicles": [],
            "starships": [],
            "created": "2014-12-20T17:53:52.607000Z",
            "edited": "2014-12-20T21:17:50.481000Z",
            "url": "https://swapi.dev/api/people/76/"
        },
        {
            "name": "San Hill",
            "height": "191",
            "mass": "unknown",
            "hair_color": "none",
            "skin_color": "grey",
            "eye_color": "gold",
            "birth_year": "unknown",
            "gender": "male",
            "homeworld": "https://swapi.dev/api/planets/57/",
            "films": [
                "https://swapi.dev/api/films/5/"
            ],
            "species": [
                "https://swapi.dev/api/species/34/"
            ],
            "vehicles": [],
            "starships": [],
            "created": "2014-12-20T17:58:17.049000Z",
            "edited": "2014-12-20T21:17:50.484000Z",
            "url": "https://swapi.dev/api/people/77/"
        },
        {
            "name": "Shaak Ti",
            "height": "178",
            "mass": "57",
            "hair_color": "none",
            "skin_color": "red, blue, white",
            "eye_color": "black",
            "birth_year": "unknown",
            "gender": "female",
            "homeworld": "https://swapi.dev/api/planets/58/",
            "films": [
                "https://swapi.dev/api/films/5/",
                "https://swapi.dev/api/films/6/"
            ],
            "species": [
                "https://swapi.dev/api/species/35/"
            ],
            "vehicles": [],
            "starships": [],
            "created": "2014-12-20T18:44:01.103000Z",
            "edited": "2014-12-20T21:17:50.486000Z",
            "url": "https://swapi.dev/api/people/78/"
        },
        {
            "name": "Grievous",
            "height": "216",
            "mass": "159",
            "hair_color": "none",
            "skin_color": "brown, white",
            "eye_color": "green, yellow",
            "birth_year": "unknown",
            "gender": "male",
            "homeworld": "https://swapi.dev/api/planets/59/",
            "films": [
                "https://swapi.dev/api/films/6/"
            ],
            "species": [
                "https://swapi.dev/api/species/36/"
            ],
            "vehicles": [
                "https://swapi.dev/api/vehicles/60/"
            ],
            "starships": [
                "https://swapi.dev/api/starships/74/"
            ],
            "created": "2014-12-20T19:43:53.348000Z",
            "edited": "2014-12-20T21:17:50.488000Z",
            "url": "https://swapi.dev/api/people/79/"
        },
        {
            "name": "Tarfful",
            "height": "234",
            "mass": "136",
            "hair_color": "brown",
            "skin_color": "brown",
            "eye_color": "blue",
            "birth_year": "unknown",
            "gender": "male",
            "homeworld": "https://swapi.dev/api/planets/14/",
            "films": [
                "https://swapi.dev/api/films/6/"
            ],
            "species": [
                "https://swapi.dev/api/species/3/"
            ],
            "vehicles": [],
            "starships": [],
            "created": "2014-12-20T19:46:34.209000Z",
            "edited": "2014-12-20T21:17:50.491000Z",
            "url": "https://swapi.dev/api/people/80/"
        },
        {
            "name": "Raymus Antilles",
            "height": "188",
            "mass": "79",
            "hair_color": "brown",
            "skin_color": "light",
            "eye_color": "brown",
            "birth_year": "unknown",
            "gender": "male",
            "homeworld": "https://swapi.dev/api/planets/2/",
            "films": [
                "https://swapi.dev/api/films/1/",
                "https://swapi.dev/api/films/6/"
            ],
            "species": [],
            "vehicles": [],
            "starships": [],
            "created": "2014-12-20T19:49:35.583000Z",
            "edited": "2014-12-20T21:17:50.493000Z",
            "url": "https://swapi.dev/api/people/81/"
        }
    ]
}