{
    "count": 82,
    "next": "https://swapi.dev/api/people/?page=8",
    "previous": "https://swapi.dev/api/people/?page=6",
    "results": [
        {
            "name": "Cliegg Lars",
            "height": "183",
            "mass": "unknown",
            "hair_color": "brown",
            "skin_color": "fair",
            "eye_color": "blue",
            "birth_year": "82BBY",
            "gender": "male",
            "homeworld": "https://swapi.dev/api/planets/1/",
            "films": [
                "https://swapi.dev/api/films/5/"
            ],
            "species": [],
            "vehicles": [],
            "starships": [],
            "created": "2014-12-20T15:59:03.958000Z",
            "edited": "2014-12-20T21:17:50.451000Z",
            "url": "https://swapi.dev/api/people/62/"
        },
        {
            "name": "Poggle the Lesser",
            "height": "183",
            "mass": "80",
            "hair_color": "none",
            "skin_color": "green",
            "eye_color": "yellow",
            "birth_year": "unknown",
            "gender": "male",
            "homeworld": "https://swapi.dev/api/planets/11/",
            "films": [
                "https://swapi.dev/api/films/5/",
                "https://swapi.dev/api/films/6/"
            ],
            "species": [
                "https://swapi.dev/api/species/28/"
            ],
            "vehicles": [],
            "starships": [],
            "created": "2014-12-20T16:40:43.977000Z",
            "edited": "2014-12-20T21:17:50.453000Z",
            "url": "https://swapi.dev/api/people/63/"
        },
        {
            "name": "Luminara Unduli",
            "height": "170",
            "mass": "56.2",
            "hair_color": "black",
            "skin_color": "yellow",
            "eye_color": "blue",
            "birth_year": "58BBY",
            "gender": "female",
            "homeworld": "https://swapi.dev/api/planets/51/",
            "films": [
                "https://swapi.dev/api/films/5/",
                "https://swapi.dev/api/films/6/"
            ],
            "species": [
                "https://swapi.dev/api/species/29/"
            ],
            "vehicles": [],
            "starships": [],
            "created": "2014-12-20T16:45:53.668000Z",
            "edited": "2014-12-20T21:17:50.455000Z",
            "url": "https://swapi.dev/api/people/64/"
        },
        {
            "name": "Barriss Offee",
            "height": "166",
            "mass": "50",
            "hair_color": "black",
            "skin_color": "yellow",
            "eye_color": "blue",
            "birth_year": "40BBY",
            "gender": "female",
            "homeworld": "https://swapi.dev/api/planets/51/",
            "films": [
                "https://swapi.dev/api/films/5/"
            ],
            "species": [
                "https://swapi.dev/api/species/29/"
            ],
            "vehicles": [],
            "starships": [],
            "created": "2014-12-20T16:46:40.440000Z",
            "edited": "2014-12-20T21:17:50.457000Z",
            "url": "https://swapi.dev/api/people/65/"
        },
        {
            "name": "Dormé",
            "height": "165",
            "mass": "unknown",
            "hair_color": "brown",
            "skin_color": "light",
            "eye_color": "brown",
            "birth_year": "unknown",
            "gender": "female",
            "homeworld": "https://swapi.dev/api/planets/8/",
            "films": [
                "https://swapi.dev/api/films/5/"
            ],
            "species": [
                "https://swapi.dev/api/species/1/"
            ],
            "vehicles": [],
            "starships": [],
            "created": "2014-12-20T16:49:14.640000Z",
            "edited": "2014-12-20T21:17:50.460000Z",
            "url": "https://swapi.dev/api/people/66/"
        },
        {
            "name": "Dooku",
            "height": "193",
            "mass": "80",
            "hair_color": "white",
            "skin_color": "fair",
            "eye_color": "brown",
            "birth_year": "102BBY",
            "gender": "male",
            "homeworld": "https://swapi.dev/api/planets/52/",
            "films": [
                "https://swapi.dev/api/films/5/",
                "https://swapi.dev/api/films/6/"
            ],
            "species": [
                "https://swapi.dev/api/species/1/"
            ],
            "vehicles": [
                "https://swapi.dev/api/vehicles/55/"
            ],
            "starships": [],
            "created": "2014-12-20T16:52:14.726000Z",
            "edited": "2014-12-20T21:17:50.462000Z",
            "url": "https://swapi.dev/api/people/67/"
        },
        {
            "name": "Bail Prestor Organa",
            "height": "191",
            "mass": "unknown",
            "hair_color": "black",
            "skin_color": "tan",
            "eye_color": "brown",
            "birth_year": "67BBY",
            "gender": "male",
            "homeworld": "https://swapi.dev/api/planets/2/",
            "films": [
                "https://swapi.dev/api/films/5/",
                "https://swapi.dev/api/films/6/"
            ],
            "species": [
                "https://swapi.dev/api/species/1/"
            ],
            "vehicles": [],
            "starships": [],
            "created": "2014-12-20T16:53:08.575000Z",
            "edited": "2014-12-20T21:17:50.463000Z",
            "url": "https://swapi.dev/api/people/68/"
        },
        {
            "name": "Jango Fett",
            "height": "183",
            "mass": "79",
            "hair_color": "black",
            "skin_color": "tan",
            "eye_color": "brown",
            "birth_year": "66BBY",
            "gender": "male",
            "homeworld": "https://swapi.dev/api/planets/53/",
            "films": [
                "https://swapi.dev/api/films/5/"
            ],
            "species": [],
            "vehicles": [],
            "starships": [],
            "created": "2014-12-20T16:54:41.620000Z",
            "edited": "2014-12-20T21:17:50.465000Z",
            "url": "https://swapi.dev/api/people/69/"
        },
        {
            "name": "Zam Wesell",
            "height": "168",
            "mass": "55",
            "hair_color": "blonde",
            "skin_color": "fair, green, yellow",
            "eye_color": "yellow",
            "birth_year": "unknown",
            "gender": "female",
            "homeworld": "https://swapi.dev/api/planets/54/",
            "films": [
                "https://swapi.dev/api/films/5/"
            ],
            "species": [
                "https://swapi.dev/api/species/30/"
            ],
            "vehicles": [
                "https://swapi.dev/api/vehicles/45/"
            ],
            "starships": [],
            "created": "2014-12-20T16:57:44.471000Z",
            "edited": "2014-12-20T21:17:50.468000Z",
            "url": "https://swapi.dev/api/people/70/"
        },
        {
            "name": "Dexter Jettster",
            "height": "198",
            "mass": "102",
            "hair_color": "none",
            "skin_color": "brown",
            "eye_color": "yellow",
            "birth_year": "unknown",
            "gender": "male",
            "homeworld": "https://swapi.dev/api/planets/55/",
            "films": [
                "https://swapi.dev/api/films/5/"
            ],
            "species": [
                "https://swapi.dev/api/species/31/"
            ],
            "vehicles": [],
            "starships": [],
            "created": "2014-12-20T17:28:27.248000Z",
            "edited": "2014-12-20T21:17:50.470000Z",
            "url": "https://swapi.dev/api/people/71/"
        }
    ]
}